NZP/simulation/qsim/NZP.msim.vcd
$comment
	File created using the following command:
		vcd file NZP.msim.vcd -direction
$end
$date
	Wed Feb 06 08:38:00 2019
$end
$version
	ModelSim Version 10.5b
$end
$timescale
	1ps
$end

$scope module NZP_vlg_vec_tst $end
$var reg 16 ! Bus [15:0] $end
$var reg 1 " clk $end
$var reg 1 # regWE $end
$var reg 1 $ reset $end
$var wire 1 % N $end
$var wire 1 & P $end
$var wire 1 ' Z $end

$scope module i1 $end
$var wire 1 ( gnd $end
$var wire 1 ) vcc $end
$var wire 1 * unknown $end
$var tri1 1 + devclrn $end
$var tri1 1 , devpor $end
$var tri1 1 - devoe $end
$var wire 1 . ~QUARTUS_CREATED_GND~I_combout $end
$var wire 1 / clk~input_o $end
$var wire 1 0 clk~inputCLKENA0_outclk $end
$var wire 1 1 reset~input_o $end
$var wire 1 2 Bus[15]~input_o $end
$var wire 1 3 register|ff_2|Q~0_combout $end
$var wire 1 4 regWE~input_o $end
$var wire 1 5 register|ff_0|Q~0_combout $end
$var wire 1 6 register|ff_2|Q~q $end
$var wire 1 7 Bus[11]~input_o $end
$var wire 1 8 Bus[4]~input_o $end
$var wire 1 9 Bus[1]~input_o $end
$var wire 1 : Bus[3]~input_o $end
$var wire 1 ; Bus[0]~input_o $end
$var wire 1 < Bus[2]~input_o $end
$var wire 1 = Bus[5]~input_o $end
$var wire 1 > Equal0~1_combout $end
$var wire 1 ? Bus[12]~input_o $end
$var wire 1 @ Bus[14]~input_o $end
$var wire 1 A Bus[13]~input_o $end
$var wire 1 B Equal0~0_combout $end
$var wire 1 C Bus[9]~input_o $end
$var wire 1 D Bus[6]~input_o $end
$var wire 1 E Bus[8]~input_o $end
$var wire 1 F Bus[7]~input_o $end
$var wire 1 G Bus[10]~input_o $end
$var wire 1 H Equal0~2_combout $end
$var wire 1 I register|ff_1|Q~0_combout $end
$var wire 1 J register|ff_1|Q~q $end
$var wire 1 K comb~0_combout $end
$var wire 1 L Equal0~3_combout $end
$var wire 1 M P_buffer~combout $end
$var wire 1 N register|ff_0|Q~1_combout $end
$var wire 1 O register|ff_0|Q~q $end
$upscope $end
$upscope $end
$enddefinitions $end
#0
$dumpvars
b11 !
0"
0#
0$
0%
0&
0'
0(
1)
x*
1+
1,
1-
0.
0/
00
01
02
03
04
05
06
07
08
19
0:
1;
0<
0=
0>
0?
0@
0A
1B
0C
0D
0E
0F
0G
1H
0I
0J
0K
0L
1M
1N
0O
$end
#5000
1"
1/
10
#10000
1#
0"
14
0/
00
15
#15000
1"
1/
10
#20000
b1000000000000011 !
b1100000000000011 !
b1100000000000001 !
b1100000000000000 !
0"
0;
09
1@
12
0/
00
1K
0B
1>
13
0M
0N
1O
1&
#25000
1"
1/
10
#30000
b100000000000000 !
b0 !
0"
0@
02
0/
00
0K
1B
03
1L
1K
1M
1I
0M
1N
0N
16
0O
0&
1%
#35000
1"
1/
10
#40000
0"
0/
00
06
1J
1'
0%
#45000
1"
1/
10
